Change Component DesignItemId : Designator=TP1 Old DesignItemId=CMP-01251-2 New DesignItemId=TP-50MIL
Change Component DesignItemId : Designator=TP2 Old DesignItemId=CMP-01251-2 New DesignItemId=TP-50MIL
Change Component DesignItemId : Designator=TP3 Old DesignItemId=CMP-01251-2 New DesignItemId=TP-50MIL
Change Component DesignItemId : Designator=TP4 Old DesignItemId=CMP-01675-2 New DesignItemId=TP-1MM
Change Component DesignItemId : Designator=TP5 Old DesignItemId=CMP-01675-2 New DesignItemId=TP-1MM
Change Component DesignItemId : Designator=TP6 Old DesignItemId=CMP-01675-2 New DesignItemId=TP-1MM
Change Component DesignItemId : Designator=TP7 Old DesignItemId=CMP-01675-2 New DesignItemId=TP-1MM
Change Component DesignItemId : Designator=TP8 Old DesignItemId=CMP-01675-2 New DesignItemId=TP-1MM
Change Component DesignItemId : Designator=TP10 Old DesignItemId=CMP-01675-2 New DesignItemId=TP-1MM
Change Component Footprint: Designator=D2 Old Footprint=DIOM3618X11N New Footprint=SOD123FL
Change Component Footprint: Designator=TP4 Old Footprint=TP-1mm-Footprint-1 New Footprint=TP-1mm
Change Component Footprint: Designator=TP5 Old Footprint=TP-1mm-Footprint-1 New Footprint=TP-1mm
Change Component Footprint: Designator=TP6 Old Footprint=TP-1mm-Footprint-1 New Footprint=TP-1mm
Change Component Footprint: Designator=TP7 Old Footprint=TP-1mm-Footprint-1 New Footprint=TP-1mm
Change Component Footprint: Designator=TP8 Old Footprint=TP-1mm-Footprint-1 New Footprint=TP-1mm
Change Component Footprint: Designator=TP10 Old Footprint=TP-1mm-Footprint-1 New Footprint=TP-1mm
Change Component Footprint: Designator=TP1 Old Footprint=TP-50mil-Footprint-1 New Footprint=TP-50mil
Change Component Footprint: Designator=TP2 Old Footprint=TP-50mil-Footprint-1 New Footprint=TP-50mil
Change Component Footprint: Designator=TP3 Old Footprint=TP-50mil-Footprint-1 New Footprint=TP-50mil
Change Component Library : Designator=TP1 Old Library=Altium Central New Library=BClib.SchLib
Change Component Library : Designator=TP2 Old Library=Altium Central New Library=BClib.SchLib
Change Component Library : Designator=TP3 Old Library=Altium Central New Library=BClib.SchLib
Change Component Library : Designator=TP4 Old Library=Altium Central New Library=BClib.SchLib
Change Component Library : Designator=TP5 Old Library=Altium Central New Library=BClib.SchLib
Change Component Library : Designator=TP6 Old Library=Altium Central New Library=BClib.SchLib
Change Component Library : Designator=TP7 Old Library=Altium Central New Library=BClib.SchLib
Change Component Library : Designator=TP8 Old Library=Altium Central New Library=BClib.SchLib
Change Component Library : Designator=TP10 Old Library=Altium Central New Library=BClib.SchLib
Change Managed Component Library Link : Designator=TP1 Old VaultGUID= New VaultGUID= Old ItemGUID=3273af12-6818-4ac6-94a9-4a005f3ccf22 New ItemGUID= Old RevisionGUID=f77e2f5e-5c97-4bfa-90bd-e734238fb102 New RevisionGUID=
Change Managed Component Library Link : Designator=TP2 Old VaultGUID= New VaultGUID= Old ItemGUID=3273af12-6818-4ac6-94a9-4a005f3ccf22 New ItemGUID= Old RevisionGUID=f77e2f5e-5c97-4bfa-90bd-e734238fb102 New RevisionGUID=
Change Managed Component Library Link : Designator=TP3 Old VaultGUID= New VaultGUID= Old ItemGUID=3273af12-6818-4ac6-94a9-4a005f3ccf22 New ItemGUID= Old RevisionGUID=f77e2f5e-5c97-4bfa-90bd-e734238fb102 New RevisionGUID=
Change Managed Component Library Link : Designator=TP4 Old VaultGUID= New VaultGUID= Old ItemGUID=4a3a7c35-1d81-486a-961a-65dc016675f4 New ItemGUID= Old RevisionGUID=d3352d91-1e83-4c69-8066-31822bc59c0e New RevisionGUID=
Change Managed Component Library Link : Designator=TP5 Old VaultGUID= New VaultGUID= Old ItemGUID=4a3a7c35-1d81-486a-961a-65dc016675f4 New ItemGUID= Old RevisionGUID=d3352d91-1e83-4c69-8066-31822bc59c0e New RevisionGUID=
Change Managed Component Library Link : Designator=TP6 Old VaultGUID= New VaultGUID= Old ItemGUID=4a3a7c35-1d81-486a-961a-65dc016675f4 New ItemGUID= Old RevisionGUID=d3352d91-1e83-4c69-8066-31822bc59c0e New RevisionGUID=
Change Managed Component Library Link : Designator=TP7 Old VaultGUID= New VaultGUID= Old ItemGUID=4a3a7c35-1d81-486a-961a-65dc016675f4 New ItemGUID= Old RevisionGUID=d3352d91-1e83-4c69-8066-31822bc59c0e New RevisionGUID=
Change Managed Component Library Link : Designator=TP8 Old VaultGUID= New VaultGUID= Old ItemGUID=4a3a7c35-1d81-486a-961a-65dc016675f4 New ItemGUID= Old RevisionGUID=d3352d91-1e83-4c69-8066-31822bc59c0e New RevisionGUID=
Change Managed Component Library Link : Designator=TP10 Old VaultGUID= New VaultGUID= Old ItemGUID=4a3a7c35-1d81-486a-961a-65dc016675f4 New ItemGUID= Old RevisionGUID=d3352d91-1e83-4c69-8066-31822bc59c0e New RevisionGUID=
Added Component: Designator=TP9(TP-50mil)
Add component (AddParameter): Name = "Manufacturer 1"; Value = "NC"; VariantName = "[No Variations]"
Add component (AddParameter): Name = "Manufacturer Part Number 1"; Value = "NC"; VariantName = "[No Variations]"
Added Component: Designator=TP11(TP-50mil)
Add component (AddParameter): Name = "Manufacturer 1"; Value = "NC"; VariantName = "[No Variations]"
Add component (AddParameter): Name = "Manufacturer Part Number 1"; Value = "NC"; VariantName = "[No Variations]"
Added Component: Designator=TP12(TP-50mil)
Add component (AddParameter): Name = "Manufacturer 1"; Value = "NC"; VariantName = "[No Variations]"
Add component (AddParameter): Name = "Manufacturer Part Number 1"; Value = "NC"; VariantName = "[No Variations]"
Added Component: Designator=TP13(TP-50mil)
Add component (AddParameter): Name = "Manufacturer 1"; Value = "NC"; VariantName = "[No Variations]"
Add component (AddParameter): Name = "Manufacturer Part Number 1"; Value = "NC"; VariantName = "[No Variations]"
Added Pin To Net: NetName=SCL Pin=TP9-1
Added Pin To Net: NetName=SDA Pin=TP11-1
Added Pin To Net: NetName=GND Pin=TP12-1
Added Pin To Net: NetName=3V3 Pin=TP13-1
Added Member To Class: ClassName=LT5W Member=Component TP9 TP-50mil
Added Member To Class: ClassName=LT5W Member=Component TP11 TP-50mil
Added Member To Class: ClassName=LT5W Member=Component TP12 TP-50mil
Added Member To Class: ClassName=LT5W Member=Component TP13 TP-50mil
